{
  "globs": {
    "vendor": {
      "js": [
        "vendor/modernizr.custom.js"
      ]
    }
  },
  "tasks": {
    "coffeescript-lint": {
      "lint": {
        "max_line_length": {
          "value": 100,
          "level": "warn"
        }
      }
    }
  }
}
